<svg width="2" height="16" viewBox="0 0 2 16" fill="none" xmlns="http://www.w3.org/2000/svg">
<line x1="1" y1="1" x2="1" y2="15" stroke="#92949C" stroke-width="2" stroke-linecap="round" stroke-linejoin="round"/>
</svg>
