<svg width="191" height="191" viewBox="0 0 191 191" fill="none" xmlns="http://www.w3.org/2000/svg">
<rect width="191" height="191" rx="95.5" fill="#DCE9FB"/>
<path d="M36.0508 61L83 68.619V101.381L36.0508 109L16 85L36.0508 61Z" fill="#92C7FF"/>
<path d="M80 41.5C80 37.9102 82.9101 35 86.5 35V35C90.0899 35 93 37.9101 93 41.5V189C93 190.105 92.1046 191 91 191H82C80.8954 191 80 190.105 80 189V41.5Z" fill="#C4C4C4"/>
<path d="M168.746 101L90 101L90 68L168.746 68L184 84.5L168.746 101Z" fill="#042B63"/>
<path d="M145.551 51L90 68.0058V100.884L145.551 116L168 81.2326L145.551 51Z" fill="#3880FF"/>
</svg>
