<svg width="44" height="44" viewBox="0 0 44 44" fill="none" xmlns="http://www.w3.org/2000/svg">
<circle cx="22" cy="22" r="21.5" fill="white" stroke="#F4F5F8"/>
<circle cx="22.5" cy="22.5" r="9" fill="white" stroke="#042B63"/>
<rect x="22" y="18" width="1" height="9" fill="#042B63"/>
<rect x="27" y="22" width="1" height="9" transform="rotate(90 27 22)" fill="#042B63"/>
</svg>
