<svg width="25" height="24" viewBox="0 0 25 24" fill="none" xmlns="http://www.w3.org/2000/svg">
<path d="M4.32495 7.11969H20.075" stroke="#E6EAF0" stroke-width="2.24206" stroke-miterlimit="10" stroke-linecap="round"/>
<path d="M4.32495 11.9978H20.075" stroke="#E6EAF0" stroke-width="2.24206" stroke-miterlimit="10" stroke-linecap="round"/>
<path d="M4.32495 16.872H20.075" stroke="#E6EAF0" stroke-width="2.24206" stroke-miterlimit="10" stroke-linecap="round"/>
</svg>
