<svg width="44" height="44" viewBox="0 0 44 44" fill="none" xmlns="http://www.w3.org/2000/svg">
<circle cx="22" cy="22" r="21.5" stroke="#F4F5F8"/>
<path d="M25 19.5L21.5 16L18 19.5" stroke="#042B63"/>
<path d="M18 25L21.5 28.5L25 25" stroke="#042B63"/>
</svg>
