<?xml version="1.0" encoding="utf-8"?>
<svg viewBox="0 0 27 27" width="27" height="27" fill="none" xmlns="http://www.w3.org/2000/svg">
  <circle cx="13.5" cy="13.5" r="13.5" fill="#A2EAA5"/>
  <path d="M 18.435 5.617 L 8.792 5.617 C 8.366 5.617 7.957 5.786 7.655 6.087 C 7.354 6.389 7.185 6.797 7.185 7.224 L 7.185 17.938 C 7.185 18.164 7.232 18.387 7.325 18.594 C 7.417 18.8 7.552 18.984 7.72 19.135 L 7.72 19.746 C 7.72 19.977 7.812 20.198 7.975 20.362 C 8.139 20.525 8.36 20.617 8.591 20.617 L 9.528 20.617 C 9.759 20.617 9.981 20.525 10.144 20.362 C 10.307 20.198 10.399 19.977 10.399 19.746 L 10.399 19.545 L 16.828 19.545 L 16.828 19.746 C 16.828 19.977 16.919 20.198 17.083 20.362 C 17.246 20.525 17.467 20.617 17.698 20.617 L 18.636 20.617 C 18.867 20.617 19.088 20.525 19.251 20.362 C 19.414 20.198 19.506 19.977 19.506 19.746 L 19.506 19.135 C 19.675 18.984 19.81 18.8 19.902 18.594 C 19.994 18.387 20.042 18.164 20.042 17.938 L 20.042 7.224 C 20.042 6.797 19.873 6.389 19.571 6.087 C 19.27 5.786 18.861 5.617 18.435 5.617 Z M 9.979 17.932 C 9.759 17.956 9.536 17.911 9.343 17.803 C 9.149 17.695 8.993 17.53 8.897 17.33 C 8.802 17.13 8.77 16.905 8.807 16.686 C 8.845 16.468 8.949 16.266 9.106 16.109 C 9.263 15.952 9.464 15.848 9.683 15.811 C 9.902 15.773 10.127 15.805 10.327 15.901 C 10.527 15.996 10.692 16.152 10.8 16.346 C 10.908 16.54 10.953 16.762 10.929 16.983 C 10.902 17.225 10.794 17.452 10.621 17.624 C 10.449 17.797 10.222 17.906 9.979 17.932 Z M 12.944 14.188 L 8.792 14.188 C 8.65 14.188 8.514 14.132 8.413 14.031 C 8.313 13.931 8.256 13.794 8.256 13.652 L 8.256 9.367 C 8.256 9.224 8.313 9.088 8.413 8.988 C 8.514 8.887 8.65 8.831 8.792 8.831 L 12.944 8.831 C 12.979 8.831 13.013 8.845 13.038 8.87 C 13.063 8.895 13.078 8.929 13.078 8.965 L 13.078 14.054 C 13.078 14.09 13.063 14.124 13.038 14.149 C 13.013 14.174 12.979 14.188 12.944 14.188 Z M 13.613 7.759 L 8.807 7.759 C 8.519 7.759 8.272 7.538 8.257 7.251 C 8.253 7.178 8.264 7.106 8.29 7.038 C 8.315 6.969 8.354 6.907 8.404 6.855 C 8.454 6.802 8.514 6.76 8.581 6.731 C 8.647 6.703 8.719 6.688 8.792 6.688 L 18.419 6.688 C 18.707 6.688 18.955 6.909 18.97 7.197 C 18.973 7.269 18.962 7.342 18.937 7.41 C 18.912 7.478 18.873 7.54 18.823 7.593 C 18.773 7.645 18.713 7.687 18.646 7.716 C 18.579 7.745 18.507 7.759 18.435 7.759 L 13.613 7.759 Z M 14.283 8.831 L 18.435 8.831 C 18.577 8.831 18.713 8.887 18.814 8.988 C 18.914 9.088 18.97 9.224 18.97 9.367 L 18.97 13.652 C 18.97 13.794 18.914 13.931 18.814 14.031 C 18.713 14.132 18.577 14.188 18.435 14.188 L 14.283 14.188 C 14.247 14.188 14.213 14.174 14.188 14.149 C 14.163 14.124 14.149 14.09 14.149 14.054 L 14.149 8.965 C 14.149 8.929 14.163 8.895 14.188 8.87 C 14.213 8.845 14.247 8.831 14.283 8.831 Z M 16.298 16.983 C 16.274 16.762 16.319 16.54 16.427 16.346 C 16.535 16.152 16.7 15.996 16.9 15.901 C 17.1 15.805 17.325 15.773 17.544 15.811 C 17.762 15.848 17.964 15.952 18.121 16.109 C 18.278 16.266 18.382 16.468 18.419 16.686 C 18.457 16.905 18.425 17.13 18.329 17.33 C 18.233 17.53 18.078 17.695 17.884 17.803 C 17.69 17.911 17.468 17.956 17.247 17.932 C 17.004 17.906 16.778 17.797 16.605 17.624 C 16.433 17.452 16.324 17.225 16.298 16.983 Z" fill="black" fill-opacity="0.57"/>
</svg>