<?xml version="1.0" encoding="utf-8"?>
<svg viewBox="0 0 27 27" width="27" height="27" fill="none" xmlns="http://www.w3.org/2000/svg">
  <path d="M27 13.5C27 20.9558 20.9558 27 13.5 27C6.04416 27 0 20.9558 0 13.5C0 6.04416 6.04416 0 13.5 0C20.9558 0 27 6.04416 27 13.5Z" fill="#FFC107"/>
  <g transform="matrix(0.024537, 0, 0, -0.022028, -3.412869, 28.155592)" fill="#000000" stroke="none" style="">
    <path d="M667 1092 c-23 -26 -21 -45 8 -72 14 -13 25 -27 25 -30 0 -4 -20 -10 -45 -13 -100 -14 -205 -92 -248 -185 -17 -37 -22 -66 -22 -137 0 -78 4 -97 27 -140 128 -242 461 -236 579 10 33 69 39 144 13 169 -35 35 -70 9 -84 -61 -13 -71 -31 -104 -81 -146 -108 -93 -273 -57 -340 76 -30 59 -24 159 14 216 38 57 96 93 160 99 l52 4 -39 -41 c-36 -36 -39 -44 -30 -68 7 -20 17 -29 37 -31 23 -3 41 10 103 70 88 84 98 103 77 138 -25 41 -153 160 -172 160 -10 0 -25 -8 -34 -18z" style="fill: rgba(0, 0, 0, 0.53);"/>
  </g>
</svg>