<svg width="46" height="54" viewBox="0 0 46 54" fill="none" xmlns="http://www.w3.org/2000/svg">
<path d="M5 9L7.5 49C7.61875 51.3112 9.3 53 11.5 53H34.5C36.7088 53 38.3588 51.3112 38.5 49L41 9" stroke="#FF533D" stroke-linecap="round" stroke-linejoin="round"/>
<path d="M1 9H45H1Z" fill="white"/>
<path d="M1 9H45" stroke="#FF533D" stroke-miterlimit="10" stroke-linecap="round"/>
<path d="M32 17L31 45M15 9.00001V4.00001C14.9988 3.60572 15.0757 3.2151 15.226 2.8506C15.3764 2.4861 15.5973 2.15492 15.8761 1.87612C16.1549 1.59731 16.4861 1.37638 16.8506 1.22602C17.2151 1.07567 17.6057 0.998858 18 1.00001H28C28.3943 0.998858 28.7849 1.07567 29.1494 1.22602C29.5139 1.37638 29.8451 1.59731 30.1239 1.87612C30.4027 2.15492 30.6236 2.4861 30.774 2.8506C30.9243 3.2151 31.0012 3.60572 31 4.00001V9.00001H15ZM23 17V45V17ZM14 17L15 45L14 17Z" stroke="#FF533D" stroke-linecap="round" stroke-linejoin="round"/>
</svg>
