<svg width="57" height="54" viewBox="0 0 57 54" fill="none" xmlns="http://www.w3.org/2000/svg">
<path d="M5.34653 52.6922H51.6535C52.4056 52.692 53.1448 52.4968 53.7988 52.1255C54.4529 51.7542 54.9995 51.2196 55.3851 50.5738C55.7707 49.9281 55.9822 49.1934 55.9989 48.4415C56.0156 47.6896 55.837 46.9462 55.4805 46.284L32.3283 3.28641C30.6859 0.237863 26.3141 0.237863 24.6717 3.28641L1.51954 46.284C1.163 46.9462 0.984356 47.6896 1.00107 48.4415C1.01779 49.1934 1.2293 49.9281 1.61492 50.5738C2.00055 51.2196 2.54709 51.7542 3.20116 52.1255C3.85522 52.4968 4.59443 52.692 5.34653 52.6922V52.6922Z" stroke="#FF533D" stroke-linecap="round" stroke-linejoin="round"/>
<path d="M27.7202 18.6121L28.5 35.1862L29.2785 18.6189C29.2833 18.513 29.2665 18.4072 29.229 18.308C29.1915 18.2088 29.1342 18.1183 29.0606 18.042C28.987 17.9657 28.8986 17.9052 28.8008 17.8643C28.703 17.8233 28.5979 17.8027 28.4919 17.8037V17.8037C28.3877 17.8048 28.2848 17.8266 28.1893 17.8681C28.0937 17.9095 28.0074 17.9697 27.9355 18.0451C27.8635 18.1204 27.8074 18.2094 27.7705 18.3068C27.7335 18.4042 27.7164 18.508 27.7202 18.6121V18.6121Z" stroke="#FF533D" stroke-width="2" stroke-linecap="round" stroke-linejoin="round"/>
<path d="M28.5 46.0357C27.9626 46.0357 27.4373 45.8763 26.9905 45.5778C26.5437 45.2792 26.1954 44.8549 25.9898 44.3584C25.7841 43.8619 25.7303 43.3156 25.8352 42.7886C25.94 42.2615 26.1988 41.7774 26.5788 41.3974C26.9588 41.0174 27.4429 40.7586 27.97 40.6538C28.497 40.5489 29.0433 40.6027 29.5398 40.8084C30.0363 41.014 30.4606 41.3623 30.7592 41.8091C31.0577 42.2559 31.2171 42.7812 31.2171 43.3186C31.2171 44.0392 30.9308 44.7303 30.4213 45.2399C29.9117 45.7494 29.2206 46.0357 28.5 46.0357Z" fill="#FF533D"/>
</svg>
