<svg width="57" height="46" viewBox="0 0 57 46" fill="none" xmlns="http://www.w3.org/2000/svg">
<rect x="50.5762" y="1.33447" width="41" height="44" rx="5.5" transform="rotate(90 50.5762 1.33447)" fill="#FFC107" stroke="black"/>
<g filter="url(#filter0_d)"></g>
<rect x="2.52734" y="11.4326" width="6.41903" height="29.3301" rx="3.20952" fill="#FFC107" stroke="black"/>
<rect x="48.2051" y="11.4326" width="6.41903" height="29.3301" rx="3.20952" fill="#FFC107" stroke="black"/>
<rect x="51.4199" y="37.0547" width="8.27971" height="45.6248" rx="4.13985" transform="rotate(90 51.4199 37.0547)" fill="#FFC107" stroke="black"/>
<defs>
<filter id="filter0_d" x="12.5234" y="7.89746" width="31.873" height="24.4404" filterUnits="userSpaceOnUse" color-interpolation-filters="sRGB">
<feFlood flood-opacity="0" result="BackgroundImageFix"/>
<feColorMatrix in="SourceAlpha" type="matrix" values="0 0 0 0 0 0 0 0 0 0 0 0 0 0 0 0 0 0 127 0" result="hardAlpha"/>
<feOffset/>
<feGaussianBlur stdDeviation="2.5"/>
<feComposite in2="hardAlpha" operator="out"/>
<feColorMatrix type="matrix" values="0 0 0 0 0 0 0 0 0 0 0 0 0 0 0 0 0 0 0.5 0"/>
<feBlend mode="normal" in2="BackgroundImageFix" result="effect1_dropShadow"/>
<feBlend mode="normal" in="SourceGraphic" in2="effect1_dropShadow" result="shape"/>
</filter>
</defs>
</svg>
