<svg width="57" height="46" viewBox="0 0 57 46" fill="none" xmlns="http://www.w3.org/2000/svg">
<rect x="50.3711" y="0.969727" width="41" height="44" rx="5.5" transform="rotate(90 50.3711 0.969727)" fill="black"/>
<rect x="50.3711" y="0.969727" width="41" height="44" rx="5.5" transform="rotate(90 50.3711 0.969727)" fill="black"/>
<rect x="50.3711" y="0.969727" width="41" height="44" rx="5.5" transform="rotate(90 50.3711 0.969727)" stroke="#777777"/>
<rect x="2.32422" y="11.0674" width="6.41903" height="29.3301" rx="3.20952" fill="black" stroke="white"/>
<rect x="48" y="11.0674" width="6.41903" height="29.3301" rx="3.20952" fill="black" stroke="white"/>
<rect x="51.2148" y="36.6904" width="8.27971" height="45.6248" rx="4.13985" transform="rotate(90 51.2148 36.6904)" fill="black" stroke="white"/>
</svg>
