<svg width="47" height="46" viewBox="0 0 47 46" fill="none" xmlns="http://www.w3.org/2000/svg">
<mask id="path-1-inside-1" fill="white">
<path fill-rule="evenodd" clip-rule="evenodd" d="M11.644 0.695313C12.7486 0.695313 13.644 1.59074 13.644 2.69531V11.3947H22.3433C23.4479 11.3947 24.3433 12.2901 24.3433 13.3947V22.5298H33.4784C34.5829 22.5298 35.4784 23.4252 35.4784 24.5298V33.2291H44.1777C45.2823 33.2291 46.1777 34.1245 46.1777 35.2291V43.6953C46.1777 44.7998 45.2823 45.6953 44.1777 45.6953H1.17773V35.2291C1.17773 35.1502 1.1823 35.0725 1.19117 34.996H1.17776V23.8609H1.17773V11.3947H1.17777V2.69531C1.17777 1.59074 2.0732 0.695313 3.17777 0.695313L11.644 0.695313Z"/>
</mask>
<path fill-rule="evenodd" clip-rule="evenodd" d="M11.644 0.695313C12.7486 0.695313 13.644 1.59074 13.644 2.69531V11.3947H22.3433C23.4479 11.3947 24.3433 12.2901 24.3433 13.3947V22.5298H33.4784C34.5829 22.5298 35.4784 23.4252 35.4784 24.5298V33.2291H44.1777C45.2823 33.2291 46.1777 34.1245 46.1777 35.2291V43.6953C46.1777 44.7998 45.2823 45.6953 44.1777 45.6953H1.17773V35.2291C1.17773 35.1502 1.1823 35.0725 1.19117 34.996H1.17776V23.8609H1.17773V11.3947H1.17777V2.69531C1.17777 1.59074 2.0732 0.695313 3.17777 0.695313L11.644 0.695313Z" fill="#E5E5E5"/>
<path fill-rule="evenodd" clip-rule="evenodd" d="M11.644 0.695313C12.7486 0.695313 13.644 1.59074 13.644 2.69531V11.3947H22.3433C23.4479 11.3947 24.3433 12.2901 24.3433 13.3947V22.5298H33.4784C34.5829 22.5298 35.4784 23.4252 35.4784 24.5298V33.2291H44.1777C45.2823 33.2291 46.1777 34.1245 46.1777 35.2291V43.6953C46.1777 44.7998 45.2823 45.6953 44.1777 45.6953H1.17773V35.2291C1.17773 35.1502 1.1823 35.0725 1.19117 34.996H1.17776V23.8609H1.17773V11.3947H1.17777V2.69531C1.17777 1.59074 2.0732 0.695313 3.17777 0.695313L11.644 0.695313Z" fill="#333E48"/>
<path d="M13.644 11.3947V12.3947H12.644V11.3947H13.644ZM24.3433 22.5298V23.5298H23.3433V22.5298H24.3433ZM35.4784 33.2291V34.2291H34.4784V33.2291H35.4784ZM1.17773 45.6953V46.6953H0.177734V45.6953H1.17773ZM1.19117 34.996V33.996H2.31393L2.1845 35.1113L1.19117 34.996ZM1.17776 34.996V35.996H0.177765V34.996H1.17776ZM1.17776 23.8609V22.8609H2.17776V23.8609H1.17776ZM1.17773 23.8609V24.8609H0.177734V23.8609H1.17773ZM1.17773 11.3947H0.177734V10.3947H1.17773V11.3947ZM1.17777 11.3947H2.17777V12.3947H1.17777V11.3947ZM12.644 2.69531C12.644 2.14303 12.1963 1.69531 11.644 1.69531V-0.304687C13.3008 -0.304687 14.644 1.03846 14.644 2.69531H12.644ZM12.644 11.3947V2.69531H14.644V11.3947H12.644ZM22.3433 12.3947H13.644V10.3947H22.3433V12.3947ZM23.3433 13.3947C23.3433 12.8424 22.8956 12.3947 22.3433 12.3947V10.3947C24.0002 10.3947 25.3433 11.7378 25.3433 13.3947H23.3433ZM23.3433 22.5298V13.3947H25.3433V22.5298H23.3433ZM33.4784 23.5298H24.3433V21.5298H33.4784V23.5298ZM34.4784 24.5298C34.4784 23.9775 34.0306 23.5298 33.4784 23.5298V21.5298C35.1352 21.5298 36.4784 22.8729 36.4784 24.5298H34.4784ZM34.4784 33.2291V24.5298H36.4784V33.2291H34.4784ZM44.1777 34.2291H35.4784V32.2291H44.1777V34.2291ZM45.1777 35.2291C45.1777 34.6768 44.73 34.2291 44.1777 34.2291V32.2291C45.8346 32.2291 47.1777 33.5722 47.1777 35.2291H45.1777ZM45.1777 43.6953V35.2291H47.1777V43.6953H45.1777ZM44.1777 44.6953C44.73 44.6953 45.1777 44.2476 45.1777 43.6953H47.1777C47.1777 45.3521 45.8346 46.6953 44.1777 46.6953V44.6953ZM1.17773 44.6953H44.1777V46.6953H1.17773V44.6953ZM2.17773 35.2291V45.6953H0.177734V35.2291H2.17773ZM2.1845 35.1113C2.18006 35.1496 2.17773 35.1888 2.17773 35.2291H0.177734C0.177734 35.1116 0.184532 34.9954 0.197838 34.8807L2.1845 35.1113ZM1.17776 33.996H1.19117V35.996H1.17776V33.996ZM2.17776 23.8609V34.996H0.177765V23.8609H2.17776ZM1.17773 22.8609H1.17776V24.8609H1.17773V22.8609ZM2.17773 11.3947V23.8609H0.177734V11.3947H2.17773ZM1.17777 12.3947H1.17773V10.3947H1.17777V12.3947ZM2.17777 2.69531V11.3947H0.177769V2.69531H2.17777ZM3.17777 1.69531C2.62548 1.69531 2.17777 2.14303 2.17777 2.69531H0.177769C0.177769 1.03846 1.52092 -0.304687 3.17777 -0.304687V1.69531ZM11.644 1.69531L3.17777 1.69531V-0.304687L11.644 -0.304687V1.69531Z" fill="black" mask="url(#path-1-inside-1)"/>
</svg>
