<svg width="14" height="20" viewBox="0 0 14 20" fill="none" xmlns="http://www.w3.org/2000/svg">
<path d="M7 4.36829C7.66304 4.36829 8.29893 4.62398 8.76777 5.07909C9.23661 5.53421 9.5 6.15149 9.5 6.79512C9.5 7.11382 9.43534 7.42939 9.3097 7.72383C9.18406 8.01827 8.99991 8.2858 8.76777 8.51115C8.53562 8.7365 8.26002 8.91526 7.95671 9.03722C7.65339 9.15918 7.3283 9.22195 7 9.22195C6.33696 9.22195 5.70107 8.96627 5.23223 8.51115C4.76339 8.05603 4.5 7.43876 4.5 6.79512C4.5 6.15149 4.76339 5.53421 5.23223 5.07909C5.70107 4.62398 6.33696 4.36829 7 4.36829ZM7 0C8.85652 0 10.637 0.715913 11.9497 1.99025C13.2625 3.26458 14 4.99294 14 6.79512C14 11.8915 7 19.4146 7 19.4146C7 19.4146 0 11.8915 0 6.79512C0 4.99294 0.737498 3.26458 2.05025 1.99025C3.36301 0.715913 5.14348 0 7 0ZM7 1.94146C5.67392 1.94146 4.40215 2.45283 3.46447 3.36307C2.52678 4.2733 2 5.50785 2 6.79512C2 7.76585 2 9.70732 7 16.2209C12 9.70732 12 7.76585 12 6.79512C12 5.50785 11.4732 4.2733 10.5355 3.36307C9.59785 2.45283 8.32608 1.94146 7 1.94146Z" fill="#D1D1D1"/>
</svg>
