<svg width="20" height="16" viewBox="0 0 20 16" fill="none" xmlns="http://www.w3.org/2000/svg">
<path d="M2.56523 7.06962C1.97535 6.82568 1.33751 6.92813 0.819566 7.33795C0.311214 7.74777 0.0138761 8.38689 0.00908028 9.09432C-0.00530705 10.7775 -0.000511273 12.4217 0.00908028 13.8121C0.0138761 14.822 0.551003 15.6319 1.41424 15.9198C1.5773 15.9734 1.95137 15.993 1.95137 15.9978H3.3949C5.58657 15.9978 7.77823 15.9978 9.9699 15.9978C11.7347 15.9978 13.4948 15.9978 15.2596 15.9978H16.5785C16.5977 15.9978 16.6216 15.9978 16.6408 15.9978C16.6792 15.9978 16.7176 16.0027 16.7511 15.9978C16.8662 15.9832 17.1875 15.9832 17.5328 15.9881C17.8637 15.9881 18.2042 15.993 18.3098 15.9783C19.3025 15.8368 19.9931 14.9245 19.9979 13.7682V13.7146C19.9979 12.2314 20.0027 10.6994 19.9979 9.1919C19.9979 8.53326 19.7725 7.94292 19.3696 7.52334C18.9668 7.10865 18.4392 6.91349 17.8733 6.97692C17.6959 6.99643 17.5185 7.05498 17.3314 7.1184C17.2403 7.14768 17.1492 7.17695 17.0533 7.20622L16.9765 7.22574V5.92798C16.9765 4.88391 16.9765 3.83985 16.9765 2.79578C16.9765 2.68357 16.9717 2.55184 16.9526 2.42987C16.7032 0.893047 15.7872 0.00998304 14.4348 0.00998304C13.442 0.00998304 12.4349 0.00998304 11.4566 0.0148618C9.5191 0.0197407 7.51447 0.0246195 5.5434 0.000225425C4.84322 -0.00953219 4.20059 0.297833 3.72101 0.854016C3.25102 1.40532 2.99685 2.15178 3.01603 2.90312C3.04481 3.81057 3.03521 4.73267 3.03042 5.62061C3.02562 5.98652 3.02562 6.35243 3.02562 6.72322C3.02562 6.81592 3.01603 6.89886 3.00644 7.00131C3.00164 7.0501 2.99685 7.09889 2.99205 7.15743L2.98726 7.25013L2.77624 7.16231C2.69951 7.12816 2.63237 7.09889 2.56523 7.06962ZM3.86009 5.8987C3.86009 4.90343 3.86009 3.90815 3.86009 2.90799C3.86009 1.75172 4.54109 0.971108 5.553 0.971108C8.39209 0.966229 11.3847 0.966229 14.4396 0.971108C15.3843 0.971108 16.0126 1.61999 16.1133 2.70308C16.1229 2.82993 16.1325 2.96166 16.1325 3.12754C16.1325 5.75234 16.1325 8.37714 16.1325 11.0068C16.1325 11.5386 16.1037 11.5679 15.6433 11.5679C14.2621 11.5679 12.8809 11.5679 11.4998 11.5679H9.99388C9.53349 11.5679 9.07309 11.5679 8.6127 11.5679C7.19315 11.5679 5.72564 11.5679 4.28212 11.5728C4.27732 11.5728 4.27732 11.5728 4.27252 11.5728C4.15263 11.5728 4.02794 11.5581 3.94641 11.4703C3.88407 11.3971 3.85529 11.2849 3.85529 11.1044C3.86009 9.36753 3.86009 7.60141 3.86009 5.8987ZM3.01603 9.28459C3.04001 9.89932 3.03521 10.5189 3.03042 11.1239C3.03042 11.3922 3.02562 11.6557 3.02562 11.924C3.02562 12.3826 3.15031 12.529 3.53877 12.529C7.8214 12.529 12.104 12.529 16.3867 12.529C16.8518 12.529 16.9621 12.3973 16.9621 11.846C16.9621 11.5337 16.9621 11.2215 16.9621 10.9141C16.9621 10.3774 16.9621 9.82614 16.9621 9.27971C16.9669 8.48935 17.4034 7.92829 18.0268 7.91853C18.3241 7.91365 18.6023 8.03562 18.7989 8.25517C19.0147 8.49423 19.1346 8.84062 19.1346 9.23093C19.1538 10.8751 19.149 12.3387 19.1298 13.7097C19.1154 14.5635 18.6838 15.0318 17.9117 15.0318C16.7367 15.0318 15.557 15.0318 14.382 15.0318C13.6483 15.0318 12.9097 15.0318 12.176 15.0318H7.05887C5.38514 15.0318 3.71142 15.0318 2.03769 15.0318C1.26557 15.0318 0.819566 14.5196 0.819566 13.6267V12.6315C0.819566 11.5142 0.819566 10.3579 0.819566 9.21629C0.819566 8.62595 1.09293 8.1771 1.56771 7.98195C1.99933 7.80144 2.4885 7.95756 2.72349 8.35274C2.90093 8.62108 3.00644 8.96747 3.01603 9.28459Z" fill="#1763D1"/>
</svg>
