<svg width="31" height="10" viewBox="0 0 31 10" fill="none" xmlns="http://www.w3.org/2000/svg">
<path d="M10.6605 9.66034L12.1989 0.164978H14.639L13.1272 9.66034H10.6605Z" fill="#0060A6"/>
<path d="M22.0101 0.397815C21.5327 0.212152 20.7635 -3.52859e-05 19.8087 -3.52859e-05C17.3951 -3.52859e-05 15.671 1.29961 15.671 3.12972C15.6445 4.48241 16.8911 5.25159 17.8194 5.70249C18.7743 6.17991 19.0925 6.47166 19.0925 6.86951C19.0925 7.50607 18.3234 7.79783 17.6338 7.79783C16.6524 7.79783 16.1219 7.66521 15.3262 7.29389L15.008 7.13475L14.6631 9.25661C15.2467 9.52185 16.3076 9.76056 17.3951 9.76056C19.9678 9.76056 21.6388 8.48744 21.6653 6.52471C21.6653 5.43725 21.0288 4.61503 19.5965 3.95194C18.7477 3.50105 18.2173 3.20929 18.2173 2.78492C18.2173 2.38707 18.6682 1.96269 19.623 1.96269C20.4187 1.96269 21.0022 2.12183 21.4531 2.33402L21.6653 2.44011L22.0101 0.397815Z" fill="#0060A6"/>
<path d="M25.2841 6.29709C25.4963 5.7401 26.2655 3.64475 26.2655 3.64475C26.239 3.67128 26.4777 3.08776 26.5838 2.74296L26.7429 3.56518C26.7429 3.56518 27.2203 5.81967 27.2999 6.29709H25.2841ZM28.3078 0.196718H26.4246C25.8411 0.196718 25.3902 0.355858 25.1515 0.992418L21.5178 9.69208H24.0906C24.0906 9.69208 24.515 8.52505 24.5945 8.25982C24.8863 8.25982 27.3795 8.25982 27.7243 8.25982C27.8039 8.60462 28.016 9.69208 28.016 9.69208H30.2971L28.3078 0.196718Z" fill="#0060A6"/>
<path d="M8.60803 0.185338L6.1944 6.65704L5.92917 5.33087C5.47827 3.81904 4.09906 2.17459 2.53418 1.35237L4.73562 9.65417H7.33491L11.2073 0.185338H8.60803Z" fill="#0060A6"/>
<path d="M3.9785 0.183266H0.026525L0 0.368929C3.07671 1.16463 5.11901 3.04779 5.96775 5.3288L5.11901 0.952444C4.93334 0.36893 4.50897 0.20979 3.9785 0.183266Z" fill="#FAA61A"/>
</svg>
