<svg width="41" height="40" viewBox="0 0 41 40" fill="none" xmlns="http://www.w3.org/2000/svg">
<path d="M34.2574 5.77778C30.4796 2 25.3685 0 20.0352 0C8.92405 0 0.0351562 8.88889 0.0351562 20C0.0351562 25.3333 2.03516 30.4444 5.81293 34.2222C9.59071 38 14.7018 40 20.0352 40C31.1463 40 40.0352 31.1111 40.0352 20C40.0352 14.6667 38.0352 9.55556 34.2574 5.77778ZM37.5907 20C37.5907 29.7778 29.5907 37.5556 20.0352 37.5556C15.3685 37.5556 10.924 35.7778 7.59071 32.4444C4.25738 29.1111 2.4796 24.6667 2.4796 20C2.4796 10.2222 10.4796 2.44444 20.2574 2.44444C24.924 2.44444 29.3685 4.22222 32.7018 7.55556C35.8129 10.8889 37.5907 15.3333 37.5907 20Z" fill="#000042"/>
<path d="M20.7018 5.33896C16.7018 5.33896 13.8129 6.22785 11.1462 8.22785C9.36842 9.7834 7.81286 11.5612 6.70175 14.0056C6.47953 14.4501 6.47953 14.8945 6.92398 15.339C7.1462 15.5612 7.36842 15.7834 7.59064 15.7834C7.59064 15.7834 7.81286 15.7834 8.03509 15.7834C10.2573 15.339 12.4795 14.8945 15.3684 14.6723C21.1462 14.2278 26.7018 14.6723 32.0351 15.7834C32.7018 16.0056 32.924 15.7834 33.1462 15.5612C33.3684 15.1167 33.5906 14.6723 33.3684 14.2278V14.0056C33.3684 14.0056 33.3684 13.7834 33.1462 13.7834C30.4795 8.45007 26.2573 5.56118 20.7018 5.33896ZM30.0351 12.8945C26.4795 12.2278 23.3684 12.0056 20.0351 12.0056C16.924 12.0056 13.5906 12.2278 10.0351 12.8945C12.4795 9.56118 15.5906 7.7834 19.5906 7.7834C24.4795 7.56118 28.2573 10.0056 30.0351 12.8945Z" fill="#000042"/>
<path d="M13.8129 22.885C12.0351 20.885 9.81285 19.5517 7.14619 18.6628C6.47952 18.4406 6.03507 18.6628 5.81285 18.6628C5.59063 18.6628 5.36841 19.1073 5.36841 19.7739C5.36841 19.9962 5.36841 20.2184 5.36841 20.4406V20.6628C5.59063 24.6628 7.14619 28.2184 10.2573 30.885C12.2573 32.885 14.7017 33.9962 17.5906 34.4406H17.8128C18.2573 34.4406 18.4795 34.2184 18.7017 33.9962C18.924 33.7739 19.1462 33.3295 18.924 32.885C18.0351 28.885 16.4795 25.5517 13.8129 22.885ZM16.2573 31.7739C15.8129 31.7739 15.5906 31.5517 15.1462 31.3295C10.924 29.3295 8.47952 26.2184 7.81285 21.5517V21.3295C7.81285 21.3295 7.81285 21.3295 7.81285 21.1073C7.81285 21.1073 7.81285 21.1073 8.03507 21.1073H8.2573C12.0351 22.885 14.4795 25.9962 16.0351 30.2184C16.0351 30.885 16.0351 31.1073 16.2573 31.7739Z" fill="#000042"/>
<path d="M21.146 33.1113C21.146 33.5558 21.146 33.778 21.3682 34.2224C21.5904 34.4447 21.8127 34.6669 22.2571 34.6669C22.2571 34.6669 22.2571 34.6669 22.4793 34.6669C22.7016 34.6669 22.7016 34.6669 22.9238 34.6669C29.5904 33.3335 34.4793 27.778 34.7016 20.8891V20.0002C34.7016 19.5558 34.7016 18.8891 34.2571 18.4447C33.8127 18.2224 33.3682 18.2224 32.7016 18.4447C26.4793 21.1113 22.7016 25.778 21.146 33.1113ZM23.8127 31.778C24.2571 30.0002 24.9238 28.4447 25.8127 27.1113C27.3682 24.6669 29.5904 22.6669 32.2571 21.3335C31.8127 26.2224 28.4793 30.2224 23.8127 31.778Z" fill="#000042"/>
<path d="M24.0349 20.0046C24.0349 18.8935 23.5905 18.0046 22.9238 17.338C22.0349 16.4491 21.146 16.0046 20.0349 16.0046C17.8127 16.0046 16.0349 17.7824 16.0349 20.0046C16.0349 21.1157 16.4794 22.0046 17.146 22.8935C17.8127 23.5602 18.9238 24.0046 19.8127 24.0046C22.2571 24.0046 24.0349 22.2269 24.0349 20.0046Z" fill="#000042"/>
</svg>
