<svg width="48" height="38" viewBox="0 0 48 38" fill="none" xmlns="http://www.w3.org/2000/svg">
<path d="M46.5796 22.4678C46.5796 20.9674 46.0705 19.6225 45.1607 18.6667C44.2509 17.7219 43.0595 17.2773 41.7814 17.4218C41.3807 17.4663 40.9799 17.5997 40.5575 17.7441C40.3517 17.8108 40.1459 17.8775 39.9293 17.9442L39.756 17.9887V15.0322C39.756 12.6537 39.756 10.2751 39.756 7.89663C39.756 7.64099 39.7452 7.3409 39.7018 7.06303C39.1494 3.57306 37.0807 1.56132 34.0263 1.56132C31.7843 1.56132 29.5097 1.56132 27.3002 1.57243C22.9244 1.58355 18.397 1.59466 13.9454 1.53909C12.364 1.51686 10.9127 2.21708 9.82956 3.48414C8.7681 4.74009 8.19405 6.44062 8.23738 8.15226C8.30237 10.2196 8.2807 12.3202 8.26987 14.3431C8.25904 15.1767 8.25904 16.0103 8.25904 16.855C8.25904 17.0662 8.23738 17.2551 8.21572 17.4885C8.20489 17.5997 8.19405 17.7108 8.18322 17.8442L8.17239 18.0554L7.69582 17.8553C7.51169 17.7775 7.36006 17.7108 7.20842 17.6552C5.87619 17.0995 4.43565 17.3329 3.26589 18.2665C2.11779 19.2002 1.44626 20.6562 1.43542 22.2678C1.40293 26.1023 1.41376 29.8479 1.43542 33.0156C1.44626 35.3163 2.65934 37.1613 4.60895 37.8171C4.97721 37.9393 5.82203 37.9838 5.82203 37.9949H9.08221C14.032 37.9949 18.9819 37.9949 23.9317 37.9949C27.9176 37.9949 31.8926 37.9949 35.8784 37.9949H38.857C38.9003 37.9949 38.9545 37.9949 38.9978 37.9949C39.0845 37.9949 39.1711 38.006 39.2469 37.9949C39.5069 37.9616 40.2326 37.9616 41.0124 37.9727C41.7597 37.9727 42.5288 37.9838 42.767 37.9504C45.0091 37.6281 46.5688 35.5497 46.5796 32.9155V32.7933C46.5904 29.3922 46.5904 25.9022 46.5796 22.4678Z" fill="#1763D1"/>
<path d="M6.15655 16.8663C4.74083 16.289 3.21002 16.5315 1.96696 17.5013C0.746914 18.4711 0.0333025 19.9836 0.0217927 21.6577C-0.0127369 25.641 -0.00122705 29.5318 0.0217927 32.8223C0.0333025 35.2122 1.32241 37.1288 3.39418 37.81C3.78552 37.937 4.68328 37.9832 4.68328 37.9947H8.14775C13.4078 37.9947 18.6678 37.9947 23.9278 37.9947C28.1634 37.9947 32.3875 37.9947 36.6231 37.9947H39.7884C39.8344 37.9947 39.8919 37.9947 39.938 37.9947C40.0301 37.9947 40.1221 38.0063 40.2027 37.9947C40.4789 37.9601 41.2501 37.9601 42.0788 37.9716C42.873 37.9716 43.6902 37.9832 43.9434 37.9485C46.326 37.6137 47.9834 35.4547 47.9949 32.7184V32.5914C47.9949 29.0815 48.0064 25.4562 47.9949 21.8886C47.9949 20.33 47.4539 18.933 46.4871 17.9401C45.5203 16.9587 44.2542 16.4969 42.896 16.6469C42.4702 16.6931 42.0443 16.8317 41.5954 16.9818C41.3767 17.051 41.158 17.1203 40.9278 17.1896L40.7437 17.2358V14.1646C40.7437 11.6939 40.7437 9.22314 40.7437 6.75238C40.7437 6.48683 40.7322 6.1751 40.6861 5.88646C40.0876 2.24961 37.8892 0.159855 34.6434 0.159855C32.2609 0.159855 29.8438 0.159855 27.4958 0.171401C22.8458 0.182946 18.0347 0.194492 13.3042 0.136764C11.6237 0.113673 10.0814 0.841044 8.93042 2.15724C7.80246 3.46189 7.19243 5.22837 7.23847 7.00639C7.30753 9.15386 7.28451 11.336 7.273 13.4373C7.26149 14.3032 7.26149 15.1691 7.26149 16.0466C7.26149 16.2659 7.23847 16.4622 7.21545 16.7047C7.20394 16.8201 7.19243 16.9356 7.18092 17.0741L7.16941 17.2935L6.66298 17.0857C6.47882 17.0049 6.31769 16.9356 6.15655 16.8663ZM9.26421 14.0954C9.26421 11.7401 9.26421 9.38477 9.26421 7.01793C9.26421 4.28163 10.8986 2.43433 13.3272 2.43433C20.141 2.42279 27.3232 2.42279 34.655 2.43433C36.9224 2.43433 38.4302 3.9699 38.6719 6.53302C38.6949 6.8332 38.7179 7.14493 38.7179 7.53748C38.7179 13.749 38.7179 19.9605 38.7179 26.1836C38.7179 27.4421 38.6489 27.5113 37.5439 27.5113C34.2291 27.5113 30.9142 27.5113 27.5994 27.5113H23.9853C22.8804 27.5113 21.7754 27.5113 20.6705 27.5113C17.2636 27.5113 13.7415 27.5113 10.2771 27.5229C10.2656 27.5229 10.2656 27.5229 10.2541 27.5229C9.96631 27.5229 9.66705 27.4882 9.47139 27.2804C9.32176 27.1072 9.2527 26.8417 9.2527 26.4145C9.26421 22.3043 9.26421 18.1248 9.26421 14.0954ZM7.23847 22.108C7.29602 23.5628 7.28451 25.029 7.273 26.4607C7.273 27.0957 7.26149 27.7192 7.26149 28.3542C7.26149 29.4394 7.56075 29.7858 8.49305 29.7858C18.7714 29.7858 29.0497 29.7858 39.328 29.7858C40.4444 29.7858 40.7091 29.4741 40.7091 28.1694C40.7091 27.4305 40.7091 26.6916 40.7091 25.9642C40.7091 24.6942 40.7091 23.3896 40.7091 22.0965C40.7207 20.2261 41.768 18.8983 43.2643 18.8752C43.9779 18.8637 44.6455 19.1523 45.1174 19.6719C45.6354 20.2376 45.9231 21.0574 45.9231 21.981C45.9691 25.8719 45.9576 29.3355 45.9116 32.5798C45.8771 34.6003 44.8412 35.7087 42.9881 35.7087C40.1682 35.7087 37.3368 35.7087 34.5168 35.7087C32.7558 35.7087 30.9833 35.7087 29.2223 35.7087H16.9413C12.9243 35.7087 8.9074 35.7087 4.89046 35.7087C3.03738 35.7087 1.96696 34.4964 1.96696 32.3836L1.96696 30.0283C1.96696 27.3843 1.96696 24.648 1.96696 21.9464C1.96696 20.5494 2.62302 19.4872 3.7625 19.0253C4.79838 18.5982 5.97239 18.9676 6.53637 19.9028C6.96224 20.5378 7.21545 21.3575 7.23847 22.108Z" fill="white"/>
</svg>
