<svg width="16" height="17" viewBox="0 0 16 17" fill="none" xmlns="http://www.w3.org/2000/svg">
<rect x="0.738281" y="0.194336" width="4.3252" height="4" fill="#042B63"/>
<rect x="0.738281" y="6.19434" width="4.3252" height="4" fill="#042B63"/>
<rect x="1.23828" y="12.6943" width="3.3252" height="3" stroke="#042B63"/>
<path d="M8.30469 14.1943C11.8878 14.1943 14.7925 11.508 14.7925 8.19434C14.7925 4.88063 11.8878 2.19434 8.30469 2.19434" stroke="#042B63"/>
<path d="M7.22656 14.1943L10.4705 12.4623L10.4705 15.9264L7.22656 14.1943Z" fill="#042B63"/>
</svg>
