<svg width="57" height="46" viewBox="0 0 57 46" fill="none" xmlns="http://www.w3.org/2000/svg">
<rect x="50.0762" y="1.33447" width="41" height="44" rx="5.5" transform="rotate(90 50.0762 1.33447)" fill="#1AC05C" stroke="black"/>
<g filter="url(#filter0_d)">
<path d="M29.5934 23.0052H26.4334L25.7734 26.8252H24.2334L24.8934 23.0052H22.5734V21.5452H25.1534L25.7334 18.1452H23.4134V16.6852H25.9934L26.6534 12.8652H28.1734L27.5134 16.6852H30.6734L31.3334 12.8652H32.8734L32.2134 16.6852H34.5334V18.1452H31.9534L31.3734 21.5452H33.6934V23.0052H31.1134L30.4534 26.8252H28.9334L29.5934 23.0052ZM29.8334 21.5452L30.4334 18.1452H27.2734L26.6734 21.5452H29.8334Z" fill="white"/>
</g>
<rect x="2.02734" y="11.4326" width="6.41903" height="29.3301" rx="3.20952" fill="#1AC05C" stroke="black"/>
<rect x="47.7051" y="11.4326" width="6.41903" height="29.3301" rx="3.20952" fill="#1AC05C" stroke="black"/>
<rect x="50.9199" y="37.0547" width="8.27971" height="45.6248" rx="4.13985" transform="rotate(90 50.9199 37.0547)" fill="#1AC05C" stroke="black"/>
<defs>
<filter id="filter0_d" x="12.0234" y="7.89746" width="32.3535" height="24.4404" filterUnits="userSpaceOnUse" color-interpolation-filters="sRGB">
<feFlood flood-opacity="0" result="BackgroundImageFix"/>
<feColorMatrix in="SourceAlpha" type="matrix" values="0 0 0 0 0 0 0 0 0 0 0 0 0 0 0 0 0 0 127 0" result="hardAlpha"/>
<feOffset/>
<feGaussianBlur stdDeviation="2.5"/>
<feComposite in2="hardAlpha" operator="out"/>
<feColorMatrix type="matrix" values="0 0 0 0 0 0 0 0 0 0 0 0 0 0 0 0 0 0 0.5 0"/>
<feBlend mode="normal" in2="BackgroundImageFix" result="effect1_dropShadow"/>
<feBlend mode="normal" in="SourceGraphic" in2="effect1_dropShadow" result="shape"/>
</filter>
</defs>
</svg>
